{
  "$schema": "https://wails.io/schemas/config.v2.json",
  "name": "sheetr",
  "outputfilename": "sheetr",
  "frontend:install": "bun i",
  "frontend:build": "bun run build",
  "frontend:dev:watcher": "bun run dev",
  "frontend:dev:serverUrl": "auto",
  "author": {
    "name": "Naomi Roberts (naomieow)",
    "email": "mia@naomieow.xyz"
  }
}
